Introduction to cmemsarco • cmemsarco
…
Overview

cmemsarco provides cloud-native access to Copernicus Marine Service
(CMEMS) Analysis-Ready Cloud-Optimized (ARCO) Zarr datasets. The package
builds a catalog of GDAL-ready data source names, letting you go
straight from URL to pixels without file downloads, directory listings,
format, or tool wrangling.

library(cmemsarco)

# The bundled catalog
cmems_catalog_data
#> # A tibble: 1,731 × 13
#>    product_id       dataset_version_id timeChunked_url geoChunked_url native_url
#>    <chr>            <chr>              <chr>           <chr>          <chr>     
#>  1 NWSHELF_ANALYSI… cmems_mod_nws_bgc… https://s3.waw… https://s3.wa… https://s…
#>  2 NWSHELF_ANALYSI… cmems_mod_nws_bgc… https://s3.waw… https://s3.wa… https://s…
#>  3 NWSHELF_ANALYSI… cmems_mod_nws_bgc… https://s3.waw… https://s3.wa… https://s…
#>  4 NWSHELF_ANALYSI… cmems_mod_nws_bgc… https://s3.waw… https://s3.wa… https://s…
#>  5 NWSHELF_ANALYSI… cmems_mod_nws_bgc… NA              NA             https://s…
#>  6 NWSHELF_ANALYSI… cmems_mod_nws_bgc… NA              NA             https://s…
#>  7 NWSHELF_ANALYSI… cmems_mod_nws_bgc… https://s3.waw… https://s3.wa… https://s…
#>  8 NWSHELF_ANALYSI… cmems_mod_nws_bgc… https://s3.waw… https://s3.wa… https://s…
#>  9 NWSHELF_ANALYSI… cmems_mod_nws_bgc… https://s3.waw… https://s3.wa… https://s…
#> 10 NWSHELF_ANALYSI… cmems_mod_nws_bgc… https://s3.waw… https://s3.wa… https://s…
#> # ℹ 1,721 more rows
#> # ℹ 8 more variables: dataset_id <chr>, version <chr>, timeChunked_gdal <chr>,
#> #   geoChunked_gdal <chr>, timeChunked_gdals3 <chr>, geoChunked_gdals3 <chr>,
#> #   timeChunked_s3 <chr>, geoChunked_s3 <chr>
…
*_gdals3
GDAL DSN using /vsis3/

*_s3
S3 URI (s3://bucket/path)

Use cmems_latest() to keep only the most recent version
of each dataset, and cmems_arco_only() to drop datasets
without Zarr URLs (static/native-only).

cmems_catalog_data |>
  cmems_arco_only() |>
  cmems_latest()
#> # A tibble: 164 × 13
#>    product_id       dataset_version_id timeChunked_url geoChunked_url native_url
#>    <chr>            <chr>              <chr>           <chr>          <chr>     
#>  1 NWSHELF_ANALYSI… cmems_mod_nws_bgc… https://s3.waw… https://s3.wa… https://s…
#>  2 GLOBAL_ANALYSIS… cmems_mod_glo_phy… https://s3.waw… https://s3.wa… https://s…
#>  3 NWSHELF_MULTIYE… cmems_mod_nws_bgc… https://s3.waw… https://s3.wa… https://s…
#>  4 GLOBAL_MULTIYEA… cmems_mod_glo_phy… https://s3.waw… https://s3.wa… https://s…
#>  5 GLOBAL_ANALYSIS… cmems_mod_glo_wav… https://s3.waw… https://s3.wa… https://s…
#>  6 SEALEVEL_GLO_PH… cmems_obs-sl_glo_… https://s3.waw… https://s3.wa… https://s…
#>  7 GLOBAL_MULTIYEA… cmems_mod_glo_bgc… https://s3.waw… https://s3.wa… https://s…
#>  8 NWSHELF_MULTIYE… cmems_mod_nws_phy… https://s3.waw… https://s3.wa… https://s…
#>  9 GLOBAL_MULTIYEA… cmems_mod_glo_wav… https://s3.waw… https://s3.wa… https://s…
#> 10 MEDSEA_ANALYSIS… cmems_mod_med_phy… https://s3.waw… https://s3.wa… https://s…
#> # ℹ 154 more rows
#> # ℹ 8 more variables: dataset_id <chr>, version <chr>, timeChunked_gdal <chr>,
#> #   geoChunked_gdal <chr>, timeChunked_gdals3 <chr>, geoChunked_gdals3 <chr>,
#> #   timeChunked_s3 <chr>, geoChunked_s3 <chr>
…
